{
  "codificacao": "real",
  "tamPop": 50,
  "execucoes": 10,
  "geracoes": 2000,
  "selecao": "roleta",
  "k": 2,
  "g": 80,
  "tipoCrossover": "blx",
  "tipoMutacao": "delta",
  "tipoFitness": "schaffer",
  "chanceMutacao": 3,
  "chanceCrossover": 85,
  "qtdVariaveis": 5,
  "variaveis": [
    {
      "min": -20,
      "max": 20,
      "precisao": 0.0001
    },
    {
      "min": -20,
      "max": 20,
      "precisao": 0.0001
    },
    {
      "min": -20,
      "max": 20,
      "precisao": 0.0001
    },
    {
      "min": -20,
      "max": 20,
      "precisao": 0.0001
    },
    {
      "min": -20,
      "max": 20,
      "precisao": 0.0001
    },
    {
      "min": -20,
      "max": 20,
      "precisao": 0.0001
    },
    {
      "min": -20,
      "max": 20,
      "precisao": 0.0001
    },
    {
      "min": -20,
      "max": 20,
      "precisao": 0.0001
    },
    {
      "min": -20,
      "max": 20,
      "precisao": 0.0001
    },
    {
      "min": -20,
      "max": 20,
      "precisao": 0.0001
    }
  ],
  "elitismo": true,
  "escLinear": false,
  "crowding": false,
  "fcrowding": 5
}

